<svg xmlns="http://www.w3.org/2000/svg" width="24" height="24" viewBox="0 0 24 24">
    <defs>
        <style>.calendar-dark-a{fill:none;}.calendar-dark-b{fill:#0a1e44;fill-rule:evenodd;}</style>
    </defs>
    <rect class="calendar-dark-a" width="24" height="24" />
    <path class="calendar-dark-b" d="M3-210H21v-1a2,2,0,0,0-2-2,1,1,0,0,1-1-1,1,1,0,0,1,1-1,4,4,0,0,1,4,4v14a4,4,0,0,1-4,4H5a4,4,0,0,1-4-4v-14a4,4,0,0,1,4-4,1,1,0,0,1,1,1,1,1,0,0,1-1,1,2,2,0,0,0-2,2Zm0,2v11a2,2,0,0,0,2,2H19a2,2,0,0,0,2-2v-11Zm8-5a1,1,0,0,1-1-1,1,1,0,0,1,1-1h2a1,1,0,0,1,1,1,1,1,0,0,1-1,1Zm-2,0a1,1,0,0,1-1,1,1,1,0,0,1-1-1v-3a1,1,0,0,1,1-1,1,1,0,0,1,1,1Zm8,0a1,1,0,0,1-1,1,1,1,0,0,1-1-1v-3a1,1,0,0,1,1-1,1,1,0,0,1,1,1ZM7-203a1,1,0,0,1-1-1,1,1,0,0,1,1-1H9a1,1,0,0,1,1,1,1,1,0,0,1-1,1Zm8,0a1,1,0,0,1-1-1,1,1,0,0,1,1-1h2a1,1,0,0,1,1,1,1,1,0,0,1-1,1Zm-8,5a1,1,0,0,1-1-1,1,1,0,0,1,1-1H9a1,1,0,0,1,1,1,1,1,0,0,1-1,1Zm8,0a1,1,0,0,1-1-1,1,1,0,0,1,1-1h2a1,1,0,0,1,1,1,1,1,0,0,1-1,1Z" transform="translate(0 217)" />
</svg>