<svg xmlns="http://www.w3.org/2000/svg" xmlns:xlink="http://www.w3.org/1999/xlink" width="13.333" height="13.995" viewBox="0 0 13.333 13.995">
  <defs>
    <clipPath id="clip-path">
      <path id="Path_1365" data-name="Path 1365" d="M212.546-252.333a2.768,2.768,0,0,1-.346-1.333v-2.978a3.614,3.614,0,0,0-3.533-3.689,3.614,3.614,0,0,0-3.533,3.689v2.978a2.768,2.768,0,0,1-.346,1.333Zm-5.213-9.143v-.191A1.333,1.333,0,0,1,208.667-263,1.333,1.333,0,0,1,210-261.667v.191a5,5,0,0,1,3.533,4.832v2.978a1.3,1.3,0,0,0,1.133,1.333.667.667,0,0,1,0,1.333h-12a.667.667,0,0,1,0-1.333,1.3,1.3,0,0,0,1.133-1.333v-2.978A5,5,0,0,1,207.333-261.476Zm3.333,11.143a2.275,2.275,0,0,1-2,1.329,2.275,2.275,0,0,1-2-1.329Z" transform="translate(-202 263)" fill="#4e5d77" clip-rule="evenodd"/>
    </clipPath>
  </defs>
  <g id="Group_2193" data-name="Group 2193" clip-path="url(#clip-path)">
    <path id="Path_1364" data-name="Path 1364" d="M197-268h20v20.662H197Z" transform="translate(-200.333 264.667)" fill="#4e5d77"/>
  </g>
</svg>
