<svg xmlns="http://www.w3.org/2000/svg" xmlns:xlink="http://www.w3.org/1999/xlink" width="36" height="36" viewBox="0 0 36 36">
  <defs>
    <style>
      .cls-1 {
        fill: none;
      }

      .cls-2 {
        clip-path: url(#clip-path);
      }

      .cls-3 {
        fill: #ffad0c;
      }

      .cls-4 {
        fill: #fff;
      }
    </style>
    <clipPath id="clip-path">
      <rect class="cls-1" width="36" height="36"/>
    </clipPath>
  </defs>
  <g id="Icon_Add2_Mail_36px" data-name="Icon / Add2 Mail 36px" class="cls-2">
    <g id="Group_2050" data-name="Group 2050" transform="translate(5816 18294)">
      <circle id="Ellipse_35" data-name="Ellipse 35" class="cls-3" cx="18" cy="18" r="18" transform="translate(-5816 -18294)"/>
      <path id="mail" class="cls-4" d="M17.815,4H2.072A2.074,2.074,0,0,0,0,6.072v9.115a2.074,2.074,0,0,0,2.072,2.072H17.815a2.074,2.074,0,0,0,2.072-2.072V6.072A2.074,2.074,0,0,0,17.815,4ZM7.308,11.361,2.337,15.5a.415.415,0,1,1-.531-.637l4.972-4.143a.415.415,0,0,1,.531.637Zm2.635.11a2.313,2.313,0,0,1-1.31-.409l-6.8-4.649a.414.414,0,1,1,.467-.684l6.8,4.649a1.484,1.484,0,0,0,1.685,0l6.8-4.649a.414.414,0,0,1,.468.684l-6.8,4.649A2.313,2.313,0,0,1,9.943,11.472Zm8.19,3.98a.414.414,0,0,1-.583.053l-4.972-4.143a.415.415,0,1,1,.531-.637l4.972,4.143A.416.416,0,0,1,18.133,15.451Z" transform="translate(-5807.943 -18286.629)"/>
    </g>
  </g>
</svg>
