<svg xmlns="http://www.w3.org/2000/svg" width="80.98" height="81.512" viewBox="0 0 80.98 81.512">
  <defs>
    <style>
      .cls-1 {
        fill: none;
        stroke: #8a94a6;
        stroke-linecap: round;
        stroke-linejoin: round;
        stroke-width: 3px;
      }
    </style>
  </defs>
  <g id="KlientIlustracja_emptystate" transform="translate(-433 -595.32)">
    <path id="Path_1312" data-name="Path 1312" class="cls-1" d="M512.494,623.317l-25.977-26.5v26.5l-25.977-26.5v26.5l-25.977-26.5v78.512h77.931Z" transform="translate(-0.014)"/>
    <rect id="Rectangle_705" data-name="Rectangle 705" class="cls-1" width="16.366" height="28.835" transform="translate(465.331 646.447)"/>
    <rect id="Rectangle_706" data-name="Rectangle 706" class="cls-1" width="17.145" height="17.145" transform="translate(434.5 641.771)"/>
    <rect id="Rectangle_707" data-name="Rectangle 707" class="cls-1" width="17.145" height="17.145" transform="translate(495.287 641.771)"/>
  </g>
</svg>
