<svg xmlns="http://www.w3.org/2000/svg" xmlns:xlink="http://www.w3.org/1999/xlink" width="28" height="28" viewBox="0 0 28 28">
  <defs>
    <style>
      .cls-1 {
        fill: none;
      }

      .cls-2 {
        clip-path: url(#clip-path);
      }

      .cls-3 {
        fill: #f7f7f9;
      }

      .cls-4 {
        fill: #4e5d77;
      }
    </style>
    <clipPath id="clip-path">
      <rect class="cls-1" width="28" height="28"/>
    </clipPath>
  </defs>
  <g id="tel_icon_grey_bg" class="cls-2">
    <rect id="Rectangle_721" data-name="Rectangle 721" class="cls-3" width="28" height="28" rx="4"/>
    <path id="XMLID_104_" class="cls-4" d="M13.553,10.4a6.861,6.861,0,0,1-2.152-.342.922.922,0,0,0-.937.2L9.1,11.286A7.61,7.61,0,0,1,5.715,7.9l1-1.33A.956.956,0,0,0,6.95,5.6a6.858,6.858,0,0,1-.345-2.156A.949.949,0,0,0,5.658,2.5H3.447a.949.949,0,0,0-.947.947A11.066,11.066,0,0,0,13.553,14.5a.949.949,0,0,0,.947-.947v-2.2A.949.949,0,0,0,13.553,10.4Z" transform="translate(5.5 5.5)"/>
  </g>
</svg>
