<svg id="Component_745_7" data-name="Component 745 – 7" xmlns="http://www.w3.org/2000/svg" width="16" height="16" viewBox="0 0 16 16">
  <rect id="Rectangle_901" data-name="Rectangle 901" width="9.381" height="1.758" rx="0.272" transform="translate(4.782 2.969)" fill="#1a1818"/>
  <rect id="Rectangle_902" data-name="Rectangle 902" width="9.381" height="1.758" rx="0.272" transform="translate(4.782 7.105)" fill="#1a1818"/>
  <rect id="Rectangle_903" data-name="Rectangle 903" width="9.38" height="1.758" rx="0.272" transform="translate(4.782 11.242)" fill="#1a1818"/>
  <path id="Path_1534" data-name="Path 1534" d="M237.589,36.713h-.443v-2.14l-.654.222V34.42l1.04-.382h.057Z" transform="translate(-234.496 -31.528)" fill="#1a1818"/>
  <path id="Path_1535" data-name="Path 1535" d="M238.177,40.864h-1.793v-.307l.868-.946c.293-.322.376-.487.376-.669a.386.386,0,0,0-.4-.424.434.434,0,0,0-.453.492h-.446a.83.83,0,0,1,.9-.849c.533,0,.837.287.837.734a1.542,1.542,0,0,1-.539.976l-.6.637h1.238Z" transform="translate(-234.496 -31.528)" fill="#1a1818"/>
  <path id="Path_1536" data-name="Path 1536" d="M236.94,43.446h.263c.306,0,.453-.166.453-.408a.361.361,0,0,0-.4-.4.376.376,0,0,0-.41.374H236.4a.77.77,0,0,1,.849-.73c.508,0,.856.26.856.758a.654.654,0,0,1-.41.576.617.617,0,0,1,.448.621.794.794,0,0,1-.894.783.781.781,0,0,1-.875-.75h.446a.393.393,0,0,0,.435.395.4.4,0,0,0,.446-.428c0-.3-.193-.438-.494-.438h-.263Z" transform="translate(-234.496 -31.528)" fill="#1a1818"/>
  <rect id="Rectangle_904" data-name="Rectangle 904" width="16" height="16" fill="none"/>
</svg>
