<svg xmlns="http://www.w3.org/2000/svg" xmlns:xlink="http://www.w3.org/1999/xlink" width="24" height="24" viewBox="0 0 24 24">
  <defs>
    <clipPath id="clock-light-clip-path">
      <rect width="24" height="24" fill="none" />
    </clipPath>
    <clipPath id="clock-light-clip-path-2">
      <path id="clock-light-Path_320" data-name="Path 320" d="M412-244a8,8,0,0,0,8-8,8,8,0,0,0-8-8,8,8,0,0,0-8,8A8,8,0,0,0,412-244Zm0,2a10,10,0,0,1-10-10,10,10,0,0,1,10-10,10,10,0,0,1,10,10A10,10,0,0,1,412-242Zm1-11v-4a1,1,0,0,0-1-1,1,1,0,0,0-1,1v5a1,1,0,0,0,1,1h5a1,1,0,0,0,1-1,1,1,0,0,0-1-1Z" transform="translate(-402 262)" fill="#ffffff" clip-rule="evenodd" />
    </clipPath>
  </defs>
  <g id="clock-light-Icon_Down_arrow" data-name="Icon / Down arrow" clip-path="url(#clock-light-clip-path)">
    <rect id="clock-light-Rectangle_169" data-name="Rectangle 169" width="24" height="24" fill="none" />
    <g id="clock-light-Group_209" data-name="Group 209" transform="translate(2 2)" clip-path="url(#clock-light-clip-path-2)">
      <path id="clock-light-Path_319" data-name="Path 319" d="M397-267h30v30H397Z" transform="translate(-402 262)" fill="#ffffff" />
    </g>
  </g>
</svg>
