<?xml version="1.0" encoding="UTF-8"?>
<svg width="24px" height="24px" viewBox="0 0 24 24" version="1.1" xmlns="http://www.w3.org/2000/svg">
    <!-- Generator: Sketch 54.1 (76490) - https://sketchapp.com -->
    <title>Icon / Opportunity Unactive</title>
    <desc>Created with Sketch.</desc>
    <g id="Page-1" stroke="none" stroke-width="1" fill="none" fill-rule="evenodd">
        <g id="Icon-/-Opportunity" fill="#B0B7C3">
            <path d="M24,12 C24,18.6272847 18.6272847,24 12,24 C5.37271525,24 0,18.6272847 0,12 C0,5.37271525 5.37271525,0 12,0 C18.6272847,0 24,5.37271525 24,12 Z M22,12 C22,6.47728475 17.5227153,2 12,2 C6.47728475,2 2,6.47728475 2,12 C2,17.5227153 6.47728475,22 12,22 C17.5227153,22 22,17.5227153 22,12 Z M7,18 C7,18.5522847 6.55228475,19 6,19 C5.44771525,19 5,18.5522847 5,18 C5,14.1337153 8.13371525,11 12,11 C15.8662847,11 19,14.1337153 19,18 C19,18.5522847 18.5522847,19 18,19 C17.4477153,19 17,18.5522847 17,18 C17,15.2382847 14.7617153,13 12,13 C9.23828475,13 7,15.2382847 7,18 Z M16,7 C16,9.20928475 14.2092847,11 12,11 C9.79071525,11 8,9.20928475 8,7 C8,4.79071525 9.79071525,3 12,3 C14.2092847,3 16,4.79071525 16,7 Z M14,7 C14,5.89528475 13.1047153,5 12,5 C10.8952847,5 10,5.89528475 10,7 C10,8.10471525 10.8952847,9 12,9 C13.1047153,9 14,8.10471525 14,7 Z" id="Combined-Shape"></path>
        </g>
    </g>
</svg>
