<svg xmlns="http://www.w3.org/2000/svg" width="25.87" height="25.842" viewBox="0 0 25.87 25.842">
  <path id="icon_cennik_grey" d="M173.217,278.812l-9.65-9.655a2.691,2.691,0,0,0-1.91-.794c-.059,0-.118,0-.177.005l-6.978.461a1.523,1.523,0,0,0-1.417,1.417l-.166,2.478a4.84,4.84,0,0,1-1-.767,4.379,4.379,0,0,1-1.3-2.618,2.716,2.716,0,0,1,.724-2.252c2.289-2.111,4.68.333,5.384,2.052a.646.646,0,0,0,.912,0c.252-.253.486-.233.233-.486-.807-2.241-4.623-5.143-7.447-2.473a3.885,3.885,0,0,0-1.094,3.293,5.657,5.657,0,0,0,1.673,3.4,5.985,5.985,0,0,0,1.818,1.25l-.2,3.106a2.7,2.7,0,0,0,.789,2.092l9.655,9.655a3.2,3.2,0,0,0,2.285.944h0a3.222,3.222,0,0,0,2.285-.944l5.595-5.595a3.222,3.222,0,0,0-.01-4.57Zm-.906,3.653-5.6,5.6a1.931,1.931,0,0,1-1.373.569h0a1.935,1.935,0,0,1-1.374-.569l-9.655-9.655a1.416,1.416,0,0,1-.413-1.094l.188-2.811c.107.015.215.032.321.043.162.015.322.027.478.027a3.9,3.9,0,0,0,2.811-1.116.645.645,0,1,0-.911-.912,2.716,2.716,0,0,1-2.253.724c-.124-.01-.241-.032-.359-.053l.193-2.875a.236.236,0,0,1,.22-.22l6.978-.461c.032,0,.064-.005.1-.005a1.426,1.426,0,0,1,1,.413l9.65,9.649a1.943,1.943,0,0,1,0,2.747Z" transform="translate(-148.802 -264.579)" fill="#c9cdd6" stroke="#c9cdd6" stroke-miterlimit="10" stroke-width="1"/>
</svg>
