<svg xmlns="http://www.w3.org/2000/svg" xmlns:xlink="http://www.w3.org/1999/xlink" width="16" height="16" viewBox="0 0 16 16">
  <defs>
    <clipPath id="clip-path">
      <rect width="16" height="16" fill="none"/>
    </clipPath>
    <clipPath id="clip-path-2">
      <path id="Path_336" data-name="Path 336" d="M323.667-260h2.667v-1.333A.667.667,0,0,1,327-262h4a.667.667,0,0,1,.667.667V-260h2.667a.667.667,0,0,1,.667.667.667.667,0,0,1-.667.667h-.667v9a1,1,0,0,1-1,1h-7.333a1,1,0,0,1-1-1v-9h-.667a.667.667,0,0,1-.667-.667A.667.667,0,0,1,323.667-260Zm4.667,8v-4a.667.667,0,0,0-.667-.667A.667.667,0,0,0,327-256v4a.667.667,0,0,0,.667.667A.667.667,0,0,0,328.333-252ZM331-252v-4a.667.667,0,0,0-.667-.667.667.667,0,0,0-.667.667v4a.667.667,0,0,0,.667.667A.667.667,0,0,0,331-252Zm-3.333-8.667V-260h2.667v-.667Zm4.667,2h-6.667V-250h6.667Z" transform="translate(-323 262)" fill="#319df8" clip-rule="evenodd"/>
    </clipPath>
  </defs>
  <g id="Icon_Trash_16_px" data-name="Icon / Trash 16 px" clip-path="url(#clip-path)">
    <rect id="Rectangle_167" data-name="Rectangle 167" width="16" height="16" fill="none"/>
    <g id="Group_217" data-name="Group 217" transform="translate(2 1.333)" clip-path="url(#clip-path-2)">
      <path id="Path_335" data-name="Path 335" d="M318-267h18.667v20H318Z" transform="translate(-321.333 263.667)" fill="#319df8"/>
    </g>
  </g>
</svg>
