<svg width="288" height="48" xmlns="http://www.w3.org/2000/svg" viewBox="0 0 288 48">
  <defs>
    <style>
      .a {
        fill: #FFAD0C;
        fill-rule: evenodd;
      }
    </style>
  </defs>
  <path class="a"
        d="M287.8725,25.5727a14.0688,14.0688,0,0,1-1.46,4.1349l-6.33,13.573a12.4617,12.4617,0,0,1-1.74,3.0561,4.3327,4.3327,0,0,1-1.62,1.2585,6.3036,6.3036,0,0,1-2.72.3745H8.02a7.1493,7.1493,0,0,1-5-1.4981,5.7732,5.7732,0,0,1-2-2.9962,21.1325,21.1325,0,0,1-1-7.4907v-23.97a21.178,21.178,0,0,1,1-7.4906,5.8353,5.8353,0,0,1,2-2.9963A7.2231,7.2231,0,0,1,8.02.03H274.0024a6.0971,6.0971,0,0,1,2.72.39,4.2881,4.2881,0,0,1,1.62,1.2434,12.4642,12.4642,0,0,1,1.74,3.0562l6.33,13.573a14.0688,14.0688,0,0,1,1.46,4.1349A9.767,9.767,0,0,1,287.8725,25.5727Z"/>
</svg>
