<svg id="Component_653_1" data-name="Component 653 – 1" xmlns="http://www.w3.org/2000/svg" width="39" height="39" viewBox="0 0 39 39">
  <path id="Path_1472" data-name="Path 1472" d="M19.5,0A19.5,19.5,0,1,1,0,19.5,19.5,19.5,0,0,1,19.5,0Z" fill="#ed3758"/>
  <g id="Icon_Leads" data-name="Icon / Leads" transform="translate(8 8)">
    <rect id="Rectangle_461" data-name="Rectangle 461" width="24" height="24" fill="none"/>
    <path id="Path_1080" data-name="Path 1080" d="M12-298a3,3,0,0,0,3-3,3,3,0,0,0-3-3,3,3,0,0,0-3,3A3,3,0,0,0,12-298Zm0-8a5.006,5.006,0,0,1,5,5,5.006,5.006,0,0,1-5,5,5.006,5.006,0,0,1-5-5A5.006,5.006,0,0,1,12-306Zm0,13a8.009,8.009,0,0,0,8-8,8.009,8.009,0,0,0-8-8,8.009,8.009,0,0,0-8,8A8.009,8.009,0,0,0,12-293Zm11-9a1,1,0,0,1,1,1,1,1,0,0,1-1,1H21.949A10.015,10.015,0,0,1,13-291.051V-290a1,1,0,0,1-1,1,1,1,0,0,1-1-1v-1.051A10.015,10.015,0,0,1,2.051-300H1a1,1,0,0,1-1-1,1,1,0,0,1,1-1H2.051A10.015,10.015,0,0,1,11-310.949V-312a1,1,0,0,1,1-1,1,1,0,0,1,1,1v1.051A10.015,10.015,0,0,1,21.949-302Z" transform="translate(0 313)" fill="#fff" fill-rule="evenodd"/>
  </g>
</svg>
