<svg xmlns="http://www.w3.org/2000/svg" width="16" height="16" viewBox="0 0 16 16">
    <g id="copy-icon" transform="translate(0.456 0.456)">
        <path d="M10.987,1.5H4.141A1.12,1.12,0,0,0,3,2.591v7.636H4.141V2.591h6.846ZM12.7,3.682H6.423A1.12,1.12,0,0,0,5.282,4.773v7.636A1.12,1.12,0,0,0,6.423,13.5H12.7a1.12,1.12,0,0,0,1.141-1.091V4.773A1.12,1.12,0,0,0,12.7,3.682Zm0,8.727H6.423V4.773H12.7Z" transform="translate(-0.673 -0.527)"/>
    </g>
</svg>