<svg xmlns="http://www.w3.org/2000/svg" xmlns:xlink="http://www.w3.org/1999/xlink" width="24" height="24" viewBox="0 0 24 24">
  <defs>
    <clipPath id="external-clip-path">
      <rect width="24" height="24" fill="none" />
    </clipPath>
    <clipPath id="external-clip-path-2">
      <path id="external-Path_371" data-name="Path 371" d="M458.586-220H455a1,1,0,0,1-1-1,1,1,0,0,1,1-1h6a1,1,0,0,1,1,1v6a1,1,0,0,1-1,1,1,1,0,0,1-1-1v-3.586l-7.293,7.293a1,1,0,0,1-1.414,0,1,1,0,0,1,0-1.414ZM458-211a1,1,0,0,1,1-1,1,1,0,0,1,1,1v6.5a2.5,2.5,0,0,1-2.5,2.5h-13a2.5,2.5,0,0,1-2.5-2.5v-13a2.5,2.5,0,0,1,2.5-2.5H451a1,1,0,0,1,1,1,1,1,0,0,1-1,1h-6.5a.5.5,0,0,0-.5.5v13a.5.5,0,0,0,.5.5h13a.5.5,0,0,0,.5-.5Z" clip-rule="evenodd" />
    </clipPath>
  </defs>
  <g id="Icon_External" data-name="Icon / External" clip-path="url(#external-clip-path)">
    <rect id="external-Rectangle_170" data-name="Rectangle 170" width="24" height="24" fill="none" />
    <g id="external-Group_236" data-name="Group 236" transform="translate(-440 224)" clip-path="url(#external-clip-path-2)">
      <path id="external-Path_370" data-name="Path 370" d="M437-227h30v30H437Z" />
    </g>
  </g>
</svg>
