<svg xmlns="http://www.w3.org/2000/svg" xmlns:xlink="http://www.w3.org/1999/xlink" width="24" height="24" viewBox="0 0 24 24">
    <defs>
        <style>.refresh-a{clip-rule:evenodd;}.refresh-b{fill:none;}</style>
    </defs>
    <g class="refresh-c">
        <rect class="refresh-b" width="24" height="24" />
        <g class="refresh-d" transform="translate(-200 224)">
            <path class="refresh-a" d="M203-212a1,1,0,0,1,1-1,1,1,0,0,1,1,1,6.973,6.973,0,0,0,2.05,4.95A6.973,6.973,0,0,0,212-205a7,7,0,0,0,7-7,7,7,0,0,0-7-7,6.976,6.976,0,0,0-2.679.531,1,1,0,0,1-1.307-.541,1,1,0,0,1,.541-1.307A8.974,8.974,0,0,1,212-221a9,9,0,0,1,9,9,9,9,0,0,1-9,9,8.974,8.974,0,0,1-6.364-2.636A8.974,8.974,0,0,1,203-212Z" />
        </g>
    </g>
</svg>
