<svg xmlns="http://www.w3.org/2000/svg" xmlns:xlink="http://www.w3.org/1999/xlink" width="16" height="16" viewBox="0 0 16 16">
  <defs>
    <style>
      .trash-cls-1 {
        clip-rule: evenodd;
      }

      .trash-cls-2 {
        fill: none;
      }
    </style>
  </defs>
  <g id="trash">
    <rect class="trash-cls-2" width="16" height="16" />
    <rect data-name="Rectangle 167" class="trash-cls-2" width="16" height="16" />
    <g data-name="Group 217" transform="translate(2 1.333)">
      <path data-name="Path 336" class="trash-cls-1" d="M323.667-260h2.667v-1.333A.667.667,0,0,1,327-262h4a.667.667,0,0,1,.667.667V-260h2.667a.667.667,0,0,1,.667.667.667.667,0,0,1-.667.667h-.667v9a1,1,0,0,1-1,1h-7.333a1,1,0,0,1-1-1v-9h-.667a.667.667,0,0,1-.667-.667A.667.667,0,0,1,323.667-260Zm4.667,8v-4a.667.667,0,0,0-.667-.667A.667.667,0,0,0,327-256v4a.667.667,0,0,0,.667.667A.667.667,0,0,0,328.333-252ZM331-252v-4a.667.667,0,0,0-.667-.667.667.667,0,0,0-.667.667v4a.667.667,0,0,0,.667.667A.667.667,0,0,0,331-252Zm-3.333-8.667V-260h2.667v-.667Zm4.667,2h-6.667V-250h6.667Z" transform="translate(-323 262)" />
    </g>
  </g>
</svg>
