<svg xmlns="http://www.w3.org/2000/svg" width="12.413" height="11.757" viewBox="0 0 12.413 11.757">
    <defs>
        <style>.update-a{stroke-miterlimit:10;stroke-width:0.25px;}</style>
    </defs>
    <g transform="translate(0.126 0.125)">
        <g transform="translate(-150.188 -133.159)">
            <path class="update-a" d="M161.993,134.158a.441.441,0,0,0-.524.339l-.321,1.5a5.735,5.735,0,0,0-10.682,2.9.441.441,0,1,0,.882,0,4.853,4.853,0,0,1,9.05-2.437l-1.471-.316a.441.441,0,1,0-.185.863l2.525.541a.431.431,0,0,0,.129.008.435.435,0,0,0,.2-.069.441.441,0,0,0,.192-.278l.541-2.524A.441.441,0,0,0,161.993,134.158Z" />
            <path class="update-a" d="M161.549,138.315a.442.442,0,0,0-.427.456,4.853,4.853,0,0,1-4.689,5.01q-.081,0-.162,0a4.852,4.852,0,0,1-4.127-2.3l1.534.411a.441.441,0,1,0,.228-.852l-2.494-.668a.442.442,0,0,0-.54.311l-.668,2.494a.441.441,0,0,0,.311.541.46.46,0,0,0,.115.015.442.442,0,0,0,.426-.327l.376-1.4a5.732,5.732,0,0,0,4.839,2.66l.191,0A5.736,5.736,0,0,0,162,138.742.441.441,0,0,0,161.549,138.315Z" />
        </g>
    </g>
</svg>