<svg xmlns="http://www.w3.org/2000/svg" xmlns:xlink="http://www.w3.org/1999/xlink" width="24" height="24" viewBox="0 0 24 24">
    <defs>
        <style>.growth-arrow-a{clip-rule:evenodd;}.growth-arrow-b{fill:none;}</style>

    </defs>
    <g transform="translate(12 5) rotate(45)">
        <rect class="growth-arrow-b" width="24" height="24" />
        <g  transform="translate(0 0)">
            <path class="growth-arrow-a" d="M169.75-256.439l-2.47,2.47a.75.75,0,0,1-1.061,0,.75.75,0,0,1,0-1.061l3.75-3.75a.75.75,0,0,1,1.061,0l3.75,3.75a.75.75,0,0,1,0,1.061.75.75,0,0,1-1.061,0l-2.47-2.47v7.189a.75.75,0,0,1-.75.75.75.75,0,0,1-.75-.75Z" transform="translate(-166 259)" />
        </g>
    </g>
</svg>