<svg xmlns="http://www.w3.org/2000/svg" xmlns:xlink="http://www.w3.org/1999/xlink" width="24" height="24" viewBox="0 0 24 24">
  <defs>
    <clipPath id="clip-path">
      <rect width="24" height="24" fill="none"/>
    </clipPath>
  </defs>
  <g id="Ikon_Bold_on" data-name="Ikon / Bold on" clip-path="url(#clip-path)">
    <rect id="Rectangle_734" data-name="Rectangle 734" width="24" height="24" rx="2" fill="#eaecef"/>
    <path id="Path_1345" data-name="Path 1345" d="M11.63,7.82A2.948,2.948,0,0,0,13,5.5,3.5,3.5,0,0,0,9.5,2H4V14h6.25a3.242,3.242,0,0,0,1.38-6.18ZM6.5,4H9.25a1.5,1.5,0,0,1,0,3H6.5Zm3.25,8H6.5V9H9.75a1.5,1.5,0,0,1,0,3Z" transform="translate(3 4)" fill="#4e5d77"/>
  </g>
</svg>
