<svg xmlns="http://www.w3.org/2000/svg" xmlns:xlink="http://www.w3.org/1999/xlink" width="24" height="24" viewBox="0 0 24 24">
  <defs>
    <clipPath id="clip-path">
      <rect width="24" height="24" fill="none"/>
    </clipPath>
  </defs>
  <g id="Ikon_List_on" data-name="Ikon / List on" clip-path="url(#clip-path)">
    <rect id="Rectangle_738" data-name="Rectangle 738" width="24" height="24" rx="2" fill="#eaecef"/>
    <path id="Path_1351" data-name="Path 1351" d="M2,17H4v.5H3v1H4V19H2v1H5V16H2ZM3,8H4V4H2V5H3ZM2,11H3.8L2,13.1V14H5V13H3.2L5,10.9V10H2ZM7,5V7H21V5ZM7,19H21V17H7Zm0-6H21V11H7Z" transform="translate(1)" fill="#4e5d77"/>
  </g>
</svg>
