<svg xmlns="http://www.w3.org/2000/svg" xmlns:xlink="http://www.w3.org/1999/xlink" width="24" height="24" viewBox="0 0 24 24">
  <defs>
    <clipPath id="clip-path">
      <rect width="24" height="24" fill="none"/>
    </clipPath>
    <clipPath id="clip-path-2">
      <path id="Path_367" data-name="Path 367" d="M371-211.414V-221a1,1,0,0,1,1-1,1,1,0,0,1,1,1v9.586l3.293-3.293a1,1,0,0,1,1.414,0,1,1,0,0,1,0,1.414l-5,5a1,1,0,0,1-1.414,0l-5-5a1,1,0,0,1,0-1.414,1,1,0,0,1,1.414,0ZM380-208a1,1,0,0,1,1-1,1,1,0,0,1,1,1v3.5a2.5,2.5,0,0,1-2.5,2.5h-15a2.5,2.5,0,0,1-2.5-2.5V-208a1,1,0,0,1,1-1,1,1,0,0,1,1,1v3.5a.5.5,0,0,0,.5.5h15a.5.5,0,0,0,.5-.5Z" fill="#fdfdfd" clip-rule="evenodd"/>
    </clipPath>
  </defs>
  <g id="Icon_Download" data-name="Icon / Download" clip-path="url(#clip-path)">
    <rect id="Rectangle_168" data-name="Rectangle 168" width="24" height="24" fill="none"/>
    <g id="Group_234" data-name="Group 234" transform="translate(-360 224)" clip-path="url(#clip-path-2)">
      <path id="Path_366" data-name="Path 366" d="M357-227h30v30H357Z" fill="#fdfdfd"/>
    </g>
  </g>
</svg>
