<svg xmlns="http://www.w3.org/2000/svg" xmlns:xlink="http://www.w3.org/1999/xlink" width="12.338" height="11.722" viewBox="0 0 12.338 11.722">
  <defs>
    <clipPath id="clip-path">
      <rect width="12.338" height="11.721" fill="none"/>
    </clipPath>
  </defs>
  <g id="Icon_History_16px" data-name="Icon / History 16px" clip-path="url(#clip-path)">
    <g id="history">
      <path id="Path_1376" data-name="Path 1376" d="M6.456,12.75a5.762,5.762,0,0,0-4.99,2.877.074.074,0,0,1-.117.015L.7,14.99a.409.409,0,0,0-.7.289v2.615a.409.409,0,0,0,.409.409H3.023a.409.409,0,0,0,.289-.7l-.991-.991a.074.074,0,0,1-.013-.088,4.658,4.658,0,1,1-.034,4.037.722.722,0,0,0-.648-.41h0a.582.582,0,0,0-.53.821,5.868,5.868,0,1,0,5.36-8.224Zm-.9,3.493v2.505a.409.409,0,0,0,.2.351l2.354,1.4a.409.409,0,0,0,.557-.137l.066-.107a.409.409,0,0,0-.138-.565l-1.93-1.158a.377.377,0,0,1-.183-.323V16.249a.414.414,0,0,0-.414-.414h-.1A.409.409,0,0,0,5.552,16.244Z" transform="translate(0 -12.75)" fill="#0a1e44" opacity="0.9"/>
    </g>
  </g>
</svg>
