<svg id="Icon_Options_Dots" data-name="Icon / Options Dots" xmlns="http://www.w3.org/2000/svg" xmlns:xlink="http://www.w3.org/1999/xlink" width="24" height="24" viewBox="0 0 24 24">
  <defs>
    <style>
      .cls-1, .cls-4 {
      fill: #319df8;
      }

      .cls-1 {
      clip-rule: evenodd;
      }

      .cls-2 {
      fill: none;
      }

      .cls-3 {
      clip-path: url(#clip-path);
      }
    </style>
    <clipPath id="clip-path">
      <path id="Path_338" data-name="Path 338" class="cls-1" d="M92-210a2,2,0,0,1-2-2,2,2,0,0,1,2-2,2,2,0,0,1,2,2A2,2,0,0,1,92-210Zm7,0a2,2,0,0,1-2-2,2,2,0,0,1,2-2,2,2,0,0,1,2,2A2,2,0,0,1,99-210Zm-14,0a2,2,0,0,1-2-2,2,2,0,0,1,2-2,2,2,0,0,1,2,2A2,2,0,0,1,85-210Z"/>
    </clipPath>
  </defs>
  <rect id="Rectangle_161" data-name="Rectangle 161" class="cls-2" width="24" height="24"/>
  <g id="Group_218" data-name="Group 218" class="cls-3" transform="translate(-80 224)">
    <path id="Path_337" data-name="Path 337" class="cls-4" d="M78-219h28v14H78Z"/>
  </g>
</svg>
