<svg xmlns="http://www.w3.org/2000/svg" width="36" height="36" viewBox="0 0 36 36">
  <g id="aktywnosc-wydarzenie" transform="translate(-4998 -2611)">
    <circle id="Ellipse_34" data-name="Ellipse 34" cx="18" cy="18" r="18" transform="translate(4998 2611)" fill="#319df8"/>
    <path id="notepad" d="M28.1,1.4H16.7a1.787,1.787,0,0,0-1.8,1.8v2.23H13.737a.636.636,0,0,0-.637.637.622.622,0,0,0,.637.637H14.9V11.96H13.737a.636.636,0,0,0-.637.637.622.622,0,0,0,.637.637H14.9v5.257H13.737a.636.636,0,0,0-.637.637.622.622,0,0,0,.637.637H14.9v2a1.787,1.787,0,0,0,1.8,1.8H28.1a1.787,1.787,0,0,0,1.8-1.8V3.2A1.8,1.8,0,0,0,28.1,1.4Zm.546,20.323a.554.554,0,0,1-.546.546H16.7a.554.554,0,0,1-.546-.546v-2h1.684a.636.636,0,0,0,.637-.637.622.622,0,0,0-.637-.637H16.15V13.211h1.684a.636.636,0,0,0,.637-.637.622.622,0,0,0-.637-.637H16.15V6.68h1.684a.636.636,0,0,0,.637-.637.622.622,0,0,0-.637-.637H16.15V3.2a.554.554,0,0,1,.546-.546H28.1a.554.554,0,0,1,.546.546Z" transform="translate(4993.851 2616.6)" fill="#fff"/>
  </g>
</svg>
