<svg id="chart8_default" xmlns="http://www.w3.org/2000/svg" width="42" height="42" viewBox="0 0 42 42">
  <g id="Component_784_198" data-name="Component 784 – 198">
    <circle id="Ellipse_74" data-name="Ellipse 74" cx="21" cy="21" r="21" fill="#fafafa"/>
  </g>
  <g id="Component_783_187" data-name="Component 783 – 187" transform="translate(5 5)">
    <g id="Ellipse_93" data-name="Ellipse 93" fill="none" stroke="#8a94a6" stroke-width="1.5">
      <circle cx="16" cy="16" r="16" stroke="none"/>
      <circle cx="16" cy="16" r="15.25" fill="none"/>
    </g>
    <g id="Ellipse_94" data-name="Ellipse 94" transform="translate(7 7)" fill="none" stroke="#8a94a6" stroke-width="1.5">
      <circle cx="9" cy="9" r="9" stroke="none"/>
      <circle cx="9" cy="9" r="8.25" fill="none"/>
    </g>
    <line id="Line_150" data-name="Line 150" x2="7" transform="translate(24.5 16.5)" fill="none" stroke="#8a94a6" stroke-width="1.5"/>
    <line id="Line_152" data-name="Line 152" x2="7" transform="translate(16) rotate(90)" fill="none" stroke="#8a94a6" stroke-width="1.5"/>
    <line id="Line_151" data-name="Line 151" x2="7" transform="translate(22.525 9.975) rotate(-45)" fill="none" stroke="#8a94a6" stroke-width="1.5"/>
  </g>
</svg>
