<svg id="chart_5_hover" xmlns="http://www.w3.org/2000/svg" width="42" height="42" viewBox="0 0 42 42">
  <g id="Component_784_190" data-name="Component 784 – 190">
    <circle id="Ellipse_74" data-name="Ellipse 74" cx="21" cy="21" r="21" fill="#f0f1f3"/>
  </g>
  <g id="Component_789_1" data-name="Component 789 – 1" transform="translate(7.5 7.5)">
    <g id="Group_7074" data-name="Group 7074" transform="translate(9439.5 4127.5)">
      <g id="Group_7072" data-name="Group 7072">
        <line id="Line_134" data-name="Line 134" y2="26" transform="translate(-9436.5 -4127.5)" fill="none"
              stroke="#8a94a6" stroke-width="1.3"/>
        <line id="Line_135" data-name="Line 135" x1="26" transform="translate(-9439.5 -4104.5)" fill="none"
              stroke="#8a94a6" stroke-width="1.3"/>
        <path id="Path_1613" data-name="Path 1613" d="M-9434-4107.5l7.171-8.856,4,3,5.934-9.75" fill="none"
              stroke="#8a94a6" stroke-width="1.3"/>
        <path id="Path_1614" data-name="Path 1614" d="M-9433.906-4114.56l7.41-6.468,3.281,2h6.271"
              transform="translate(0 2)" fill="none" stroke="#8a94a6" stroke-width="1.3"/>
      </g>
    </g>
  </g>
</svg>
