<svg id="_1486060258-facebook" data-name="1486060258-facebook" xmlns="http://www.w3.org/2000/svg" width="28" height="28" viewBox="0 0 28 28">
  <g id="Layer_2">
    <g id="Group_6534" data-name="Group 6534" transform="translate(0 0)">
      <path id="Path_1483" data-name="Path 1483" d="M35,21A14,14,0,1,1,21,7,14,14,0,0,1,35,21Zm0,0" transform="translate(-7 -7)" fill="#3c5a99"/>
      <path id="Path_1484" data-name="Path 1484" d="M183.346,112.823h-2.422V121.7h-3.67v-8.874h-1.745V109.7h1.745v-2.018a3.442,3.442,0,0,1,3.7-3.7l2.718.012v3.027H181.7a.747.747,0,0,0-.779.85v1.836h2.744Zm0,0" transform="translate(-165.949 -98.241)" fill="#fff"/>
    </g>
  </g>
</svg>
