<svg id="_1486060275-linkedin" data-name="1486060275-linkedin" xmlns="http://www.w3.org/2000/svg" width="28" height="28" viewBox="0 0 28 28">
  <g id="Layer_2">
    <g id="Group_6536" data-name="Group 6536">
      <path id="Path_1487" data-name="Path 1487" d="M34,20.879a14,14,0,1,1-14-14,14,14,0,0,1,14,14Zm0,0" transform="translate(-6 -6.879)" fill="#e0e3e7"/>
      <path id="Path_1488" data-name="Path 1488" d="M141.82,122.593v5.615h-3.255V122.97c0-1.316-.469-2.214-1.649-2.214a1.781,1.781,0,0,0-1.669,1.191,2.2,2.2,0,0,0-.108.793v5.468h-3.256s.044-8.872,0-9.791h3.256V119.8c-.006.011-.015.021-.021.032h.021V119.8a3.232,3.232,0,0,1,2.934-1.618c2.142,0,3.747,1.4,3.747,4.406ZM128.479,113.7a1.7,1.7,0,1,0-.043,3.383h.02a1.7,1.7,0,1,0,.022-3.383Zm-1.649,14.51h3.254v-9.791H126.83Zm0,0" transform="translate(-119.649 -107.53)" fill="#fff"/>
    </g>
  </g>
</svg>
