<svg xmlns="http://www.w3.org/2000/svg" width="48" height="48" viewBox="0 0 48 48">
  <g id="Group_2619" data-name="Group 2619" transform="translate(-567 -972)">
    <g id="Component_651" data-name="Component 651" transform="translate(567 972)">
      <g id="Rectangle_733" data-name="Rectangle 733" fill="#eaecef" stroke="#eaecef" stroke-width="1">
        <rect width="48" height="48" rx="4" stroke="none"/>
        <rect x="0.5" y="0.5" width="47" height="47" rx="3.5" fill="none"/>
      </g>
    </g>
    <path id="Path_1572" data-name="Path 1572" d="M15.876,337.1v.347a1.342,1.342,0,0,0,.781,1.389h.087l.087.087.087.087a1.89,1.89,0,0,0,.695.434H17.7v.087a1.944,1.944,0,0,0,1.91,1.737h.26l.087.087a1.2,1.2,0,0,0,.261.347,2.049,2.049,0,0,0,1.389.608h.174l.087.087c.087.174.174.26.26.434a1.728,1.728,0,0,0,1.389.608H23.6a2.129,2.129,0,0,0,1.389-.521l6.078-5.731h.781v.174a1.567,1.567,0,0,0,1.476,1.216h2.865c.174,0,.26-.087.434-.174a.663.663,0,0,0,.174-.434.5.5,0,0,0-.521-.521H33.329a.307.307,0,0,1-.347-.347v-7.9a.307.307,0,0,1,.347-.347h2.865c.174,0,.26-.087.434-.174a.663.663,0,0,0,.174-.434.452.452,0,0,0-.174-.347.658.658,0,0,0-.347-.174H33.416a1.567,1.567,0,0,0-1.476,1.216v.174H27.511l-2-1.389a3.131,3.131,0,0,0-1.737-.521h-2a3.533,3.533,0,0,0-2.084.695L17.96,329.11a1.545,1.545,0,0,0-.608.695l-.087.087H15.528v-1.129a.766.766,0,0,0-.695-.781H11.708c-.174,0-.26.087-.434.174a.663.663,0,0,0-.174.434.65.65,0,0,0,.521.608H14.4v8.6H11.708c-.174,0-.26.087-.434.174a.663.663,0,0,0-.174.434c0,.174.087.261.174.434a.658.658,0,0,0,.347.174h3.126a.709.709,0,0,0,.695-.782v-1.389h.608v.174C15.963,336.925,15.876,337.012,15.876,337.1Zm12.677-4.515a1.4,1.4,0,0,0,.347-.608,1.375,1.375,0,0,0-.087-1.3l-.087-.26h2.952v5.9H30.464l-6.426,5.9a.788.788,0,0,1-.608.26h0a.676.676,0,0,1-.608-.26,1.9,1.9,0,0,1-.261-.434l-.087-.521a.087.087,0,0,0-.087-.087l-.521.174c-.087,0-.174.087-.347.087h0a.677.677,0,0,1-.608-.26,1.9,1.9,0,0,1-.26-.434l-.087-.608a.087.087,0,0,0-.087-.087l-.608.26a.65.65,0,0,1-.434.087h0a.788.788,0,0,1-.608-.26.938.938,0,0,1-.26-.608,4.571,4.571,0,0,1,.174-.695.087.087,0,0,0-.087-.087l-.521-.087a.619.619,0,0,1-.521-.26c-.087-.087-.521-.434-.521-.434l-.174-.087.174-.087c.781-.781,2.692-2.431,4.168-3.734.781-.695,1.476-1.3,1.823-1.65l.087-.087,2,1.3c.868.608,1.823.868,3.039-.521ZM15.7,335.536v-4.255h.174v-.174h.347c1.476.174,1.737-.087,1.823-.174v-.087a1.89,1.89,0,0,1,.434-.695l1.737-1.216a2.358,2.358,0,0,1,1.476-.521h2a1.516,1.516,0,0,1,1.042.347l2.865,2a.478.478,0,0,1,.26.434,1.234,1.234,0,0,1-.174.521l-.26.26c-.695.868-1.042.782-1.65.347l-2.084-1.389H23.6a.91.91,0,0,0-1.042.087c-.174.174-3.56,3.213-5.384,4.863l-.174.174-.087-.174V335.8a.087.087,0,0,0-.087-.087.99.99,0,0,0-.521-.26H15.7Z" transform="translate(566.9 660.802)" fill="#4e5d77"/>
  </g>
</svg>
