<svg xmlns="http://www.w3.org/2000/svg" xmlns:xlink="http://www.w3.org/1999/xlink" width="288" height="32" viewBox="0 0 288 32">
  <defs>
    <clipPath id="clip-path">
      <rect width="288" height="32" fill="none"/>
    </clipPath>
  </defs>
  <g id="bp_arrow_blue" clip-path="url(#clip-path)">
    <rect id="Rectangle_627" data-name="Rectangle 627" width="268" height="32" rx="1" transform="translate(7)" fill="#1DC9D7"/>
    <path id="Path_1210" data-name="Path 1210" d="M294,1243.332a9.884,9.884,0,0,1-5-1,4.269,4.269,0,0,1-2-2,9.887,9.887,0,0,1-1-5v-16a9.881,9.881,0,0,1,1-5,4.269,4.269,0,0,1,2-2,9.883,9.883,0,0,1,5-1v32" transform="translate(-286 -1211.332)" fill="#1DC9D7" fill-rule="evenodd"/>
    <path id="Path_1211" data-name="Path 1211" d="M462.456,1211.332a8.914,8.914,0,0,1,2.721.253,4.62,4.62,0,0,1,1.622.833,8.439,8.439,0,0,1,1.739,2.039l6.335,9.066a7.731,7.731,0,0,1,1.453,2.757,4.314,4.314,0,0,1,0,2.1,7.723,7.723,0,0,1-1.453,2.757l-6.335,9.066a8.435,8.435,0,0,1-1.739,2.039,4.618,4.618,0,0,1-1.622.834,8.952,8.952,0,0,1-2.721.252Z" transform="translate(-188.456 -1211.332)" fill="#1DC9D7" fill-rule="evenodd"/>
  </g>
</svg>
