<svg xmlns="http://www.w3.org/2000/svg" width="288.02" height="32.04" viewBox="0 0 288.02 32.04">
  <g id="Znacznik_Etapu_-_BLUE_i_Ouline" data-name="Znacznik Etapu - BLUE i Ouline" transform="translate(-0.972 -456.137)" fill="#319df8" fill-rule="evenodd">
    <path d="M 8.36388111114502 486.677001953125 C 7.085495948791504 486.677001953125 5.803188323974609 486.3778076171875 4.655534744262695 485.8117370605469 L 4.648342132568359 485.8081970214844 L 4.641111373901367 485.8047180175781 C 4.076034545898438 485.5335083007812 3.615496158599854 485.0729675292969 3.344265222549438 484.5078735351562 L 3.340726852416992 484.50048828125 L 3.337073087692261 484.4931030273438 C 2.689842224121094 483.1817321777344 2.396611452102661 481.7149963378906 2.488996028900146 480.2515258789062 L 2.491996049880981 480.2043151855469 L 2.491996049880981 480.1570129394531 L 2.491996049880981 464.1570129394531 L 2.491996049880981 464.1092224121094 L 2.488957643508911 464.0615539550781 C 2.395803689956665 462.6010437011719 2.689149856567383 461.1344909667969 3.337265253067017 459.8205261230469 L 3.340649843215942 459.8136291503906 L 3.343996047973633 459.8067016601562 C 3.615803718566895 459.2410888671875 4.076457500457764 458.7803039550781 4.641111373901367 458.50927734375 L 4.647957801818848 458.5060119628906 L 4.65480375289917 458.5026245117188 C 5.80403470993042 457.9365539550781 7.088111400604248 457.6372985839844 8.368227005004883 457.6372985839844 C 8.543957710266113 457.6372985839844 8.721996307373047 457.6429138183594 8.897418975830078 457.6539916992188 L 8.944649696350098 457.6570129394531 L 8.991995811462402 457.6570129394531 L 274.9920043945312 457.6570129394531 L 275.037841796875 457.6570129394531 L 275.0836181640625 457.6542053222656 C 275.2332763671875 457.6450500488281 275.3851928710938 457.640380859375 275.5351867675781 457.640380859375 C 276.1359252929688 457.640380859375 276.7376098632812 457.7138977050781 277.3240051269531 457.8589172363281 C 277.7105102539062 457.9716491699219 278.0663452148438 458.1542663574219 278.3824462890625 458.402099609375 C 278.9383850097656 458.8787841796875 279.4126586914062 459.4369506835938 279.7923278808594 460.0613403320312 L 279.8171081542969 460.1020812988281 L 279.8444213867188 460.1412048339844 L 286.1794128417969 469.2071838378906 L 286.2131042480469 469.25537109375 L 286.25048828125 469.3008117675781 C 286.7844848632812 469.9500427246094 287.175537109375 470.6880493164062 287.4131774902344 471.4947509765625 C 287.5174865722656 471.9277038574219 287.5174865722656 472.383056640625 287.4132080078125 472.8150939941406 C 287.1756591796875 473.62255859375 286.7847595214844 474.3603515625 286.2510681152344 475.0085144042969 L 286.21337890625 475.0542297363281 L 286.1794128417969 475.1028137207031 L 279.8444213867188 484.1688232421875 L 279.8171081542969 484.2079162597656 L 279.7923278808594 484.2486572265625 C 279.4114074707031 484.8751525878906 278.9370727539062 485.433349609375 278.3823547363281 485.9080200195312 C 278.0655212402344 486.1573791503906 277.710205078125 486.3401489257812 277.3255615234375 486.4516906738281 C 276.7444763183594 486.595458984375 276.1440734863281 486.6683959960938 275.54052734375 486.6683959960938 C 275.3948059082031 486.6683959960938 275.2471008300781 486.6640930175781 275.1015014648438 486.6555480957031 L 275.0577697753906 486.6530151367188 L 275.0140075683594 486.6530151367188 C 274.9773864746094 486.6530151367188 274.9407348632812 486.6543273925781 274.9041442871094 486.6570129394531 L 8.991995811462402 486.6570129394531 L 8.94422721862793 486.6570129394531 L 8.89653491973877 486.6600341796875 C 8.719996452331543 486.6712951660156 8.540765762329102 486.677001953125 8.36388111114502 486.677001953125 Z" stroke="none"/>
    <path d="M 8.36822509765625 459.1372985839844 C 7.316650390625 459.1372985839844 6.261810302734375 459.3831176757812 5.31768798828125 459.8482055664062 L 5.303955078125 459.8549499511719 L 5.290191650390625 459.861572265625 C 5.03173828125 459.9856262207031 4.8206787109375 460.1968994140625 4.69598388671875 460.4563903808594 L 4.6893310546875 460.4702758789062 L 4.682525634765625 460.4840393066406 C 4.15032958984375 461.5630493164062 3.909454345703125 462.76708984375 3.985931396484375 463.966064453125 L 3.99200439453125 464.0614624023438 L 3.99200439453125 464.1570129394531 L 3.99200439453125 480.1570129394531 L 3.99200439453125 480.2516174316406 L 3.98602294921875 480.3460693359375 C 3.910125732421875 481.5482177734375 4.150848388671875 482.752685546875 4.68218994140625 483.8292846679688 L 4.689453125 483.843994140625 L 4.696563720703125 483.8587951660156 C 4.82073974609375 484.1174621582031 5.031524658203125 484.3282775878906 5.290191650390625 484.4524230957031 L 5.304656982421875 484.4593811035156 L 5.31903076171875 484.4664611816406 C 6.261444091796875 484.9313049316406 7.31439208984375 485.177001953125 8.3638916015625 485.177001953125 C 8.509002685546875 485.177001953125 8.656158447265625 485.1723022460938 8.80126953125 485.1630859375 L 8.89654541015625 485.1570129394531 L 8.99200439453125 485.1570129394531 L 274.8588562011719 485.1570129394531 C 274.9105224609375 485.1543273925781 274.9622497558594 485.1530151367188 275.0140075683594 485.1530151367188 L 275.1017150878906 485.1530151367188 L 275.1893005371094 485.1581115722656 C 275.3055725097656 485.1649169921875 275.4237670898438 485.1683959960938 275.54052734375 485.1683959960938 C 276.0116271972656 485.1683959960938 276.4798583984375 485.1129150390625 276.93310546875 485.0034484863281 C 277.1131896972656 484.947998046875 277.281005859375 484.8616333007812 277.4328918457031 484.7461547851562 C 277.8558044433594 484.3796081542969 278.21826171875 483.9502258300781 278.5106811523438 483.4692993164062 L 278.5602416992188 483.3878479003906 L 278.6148681640625 483.3096618652344 L 284.9498901367188 474.24365234375 L 285.0177612304688 474.1465148925781 L 285.0931091308594 474.0549621582031 C 285.4888305664062 473.5744018554688 285.7810668945312 473.0285034179688 285.9623107910156 472.4314880371094 C 286.0013122558594 472.2500915527344 286.0013122558594 472.0606384277344 285.9622802734375 471.8785095214844 C 285.7808532714844 471.2818298339844 285.4882507324219 470.7354736328125 285.0919494628906 470.2536315917969 L 285.0172729492188 470.1627807617188 L 284.9498901367188 470.0663452148438 L 278.6148681640625 461.0003356933594 L 278.5602416992188 460.9221496582031 L 278.5106811523438 460.8406982421875 C 278.2196350097656 460.3620300292969 277.8575439453125 459.9330444335938 277.4338073730469 459.5647583007812 C 277.2819519042969 459.4500122070312 277.1129760742188 459.3634338378906 276.9305114746094 459.3069152832031 C 276.4725036621094 459.1964111328125 276.0032958984375 459.140380859375 275.53515625 459.140380859375 C 275.415771484375 459.140380859375 275.294677734375 459.1440734863281 275.1752319335938 459.1513977050781 L 275.0836791992188 459.1570129394531 L 274.9920043945312 459.1570129394531 L 8.99200439453125 459.1570129394531 L 8.897186279296875 459.1570129394531 L 8.802581787109375 459.1510009765625 C 8.6588134765625 459.1419372558594 8.5126953125 459.1372985839844 8.36822509765625 459.1372985839844 M 8.36822509765625 456.1372985839844 C 8.575836181640625 456.1372985839844 8.7840576171875 456.1438598632812 8.99200439453125 456.1570129394531 L 274.9920043945312 456.1570129394531 C 275.1730651855469 456.1459350585938 275.3541870117188 456.1404113769531 275.53515625 456.1404113769531 C 276.268798828125 456.1404113769531 276.9999084472656 456.2311401367188 277.7129821777344 456.4100036621094 C 278.3039855957031 456.5780029296875 278.85498046875 456.8609924316406 279.3349914550781 457.2430114746094 C 280.0199890136719 457.8259887695312 280.6069946289062 458.5140075683594 281.0740051269531 459.2820129394531 L 287.4089965820312 468.3479919433594 C 288.0759887695312 469.1589965820312 288.5700073242188 470.0970153808594 288.8619995117188 471.1050109863281 C 289.0350036621094 471.7950134277344 289.0350036621094 472.5159912109375 288.8619995117188 473.2049865722656 C 288.5700073242188 474.2139892578125 288.0759887695312 475.1520080566406 287.4089965820312 475.9620056152344 L 281.0740051269531 485.0280151367188 C 280.6069946289062 485.7959899902344 280.0199890136719 486.4850158691406 279.3349914550781 487.0669860839844 C 278.85498046875 487.4500122070312 278.3039855957031 487.7340087890625 277.7129821777344 487.9010009765625 C 277.0024108886719 488.0792541503906 276.2723083496094 488.1683654785156 275.54052734375 488.1683654785156 C 275.3650512695312 488.1683654785156 275.1894226074219 488.1632385253906 275.0140075683594 488.1530151367188 C 275.0059814453125 488.1530151367188 275 488.1570129394531 274.9920043945312 488.1570129394531 L 8.99200439453125 488.1570129394531 C 8.782470703125 488.1703491210938 8.57305908203125 488.177001953125 8.363861083984375 488.177001953125 C 6.850830078125 488.177001953125 5.3546142578125 487.8290710449219 3.99200439453125 487.1570129394531 C 3.11700439453125 486.7369995117188 2.4119873046875 486.0320129394531 1.99200439453125 485.1570129394531 C 1.22698974609375 483.6069946289062 0.88299560546875 481.8829956054688 0.99200439453125 480.1570129394531 L 0.99200439453125 464.1570129394531 C 0.881988525390625 462.4320068359375 1.22698974609375 460.7080078125 1.99200439453125 459.1570129394531 C 2.4119873046875 458.2829895019531 3.11700439453125 457.5769958496094 3.99200439453125 457.1570129394531 C 5.35601806640625 456.485107421875 6.853546142578125 456.1372985839844 8.36822509765625 456.1372985839844 Z" stroke="none" fill="#4e5d77"/>
  </g>
</svg>
