<svg xmlns="http://www.w3.org/2000/svg" width="134" height="32" viewBox="0 0 134 32">
  <defs>
    <style>.a {
      fill: none;
    }

    .b {
      clip-path: url(#a);
    }

    .c, .d {
      fill: #319df8;
    }

    .d {
      fill-rule: evenodd;
    }</style>
    <clipPath id="a">
      <rect class="a" width="134" height="32"/>
    </clipPath>
  </defs>
  <g class="b">
    <rect class="c" width="114" height="32" rx="1" transform="translate(7)"/>
    <path class="d"
          d="M294,1243.332a9.884,9.884,0,0,1-5-1,4.269,4.269,0,0,1-2-2,9.887,9.887,0,0,1-1-5v-16a9.881,9.881,0,0,1,1-5,4.269,4.269,0,0,1,2-2,9.883,9.883,0,0,1,5-1v32"
          transform="translate(-286 -1211.332)"/>
    <path class="d"
          d="M462.456,1211.332a8.914,8.914,0,0,1,2.721.253,4.62,4.62,0,0,1,1.622.833,8.439,8.439,0,0,1,1.739,2.039l6.335,9.066a7.731,7.731,0,0,1,1.453,2.757,4.314,4.314,0,0,1,0,2.1,7.723,7.723,0,0,1-1.453,2.757l-6.335,9.066a8.435,8.435,0,0,1-1.739,2.039,4.618,4.618,0,0,1-1.622.834,8.952,8.952,0,0,1-2.721.252Z"
          transform="translate(-342.456 -1211.332)"/>
  </g>
</svg>
