<svg id="Icon_Internal" data-name="Icon / Internal" xmlns="http://www.w3.org/2000/svg" width="24" height="24" viewBox="0 0 24 24">
  <rect id="Rectangle_170" data-name="Rectangle 170" width="24" height="24" fill="none" style="mix-blend-mode: multiply;isolation: isolate"/>
  <g id="Group_2617" data-name="Group 2617" transform="translate(-742 -373)">
    <path id="Path_1463" data-name="Path 1463" d="M754.414,386H758a1,1,0,0,1,0,2h-6a1,1,0,0,1-1-1v-6a1,1,0,0,1,2,0v3.586l7.293-7.293a1,1,0,0,1,1.414,1.414Z" fill="#319df8" fill-rule="evenodd"/>
    <path id="Path_1464" data-name="Path 1464" d="M761,385a1,1,0,0,1,2,0v6.5a2.5,2.5,0,0,1-2.5,2.5h-13a2.5,2.5,0,0,1-2.5-2.5v-13a2.5,2.5,0,0,1,2.5-2.5H754a1,1,0,0,1,0,2h-6.5a.5.5,0,0,0-.5.5v13a.5.5,0,0,0,.5.5h13a.5.5,0,0,0,.5-.5Z" fill="#319df8" fill-rule="evenodd"/>
  </g>
</svg>
